{
  "type": "service_account",
  "project_id": "sharp-footing-218200",
  "private_key_id": "192dadb19dc2e8e6783f9385154131129665cdcf",
  "private_key": "-----BEGIN PRIVATE KEY-----\nMIIEvQIBADANBgkqhkiG9w0BAQEFAASCBKcwggSjAgEAAoIBAQCCUYi3SQ9Cuoj+\nJQoK/VhkYvagkff5ec7d0kesRGTDdCRVmsCnPTifMt/IQZlife7OY9hYm5MxYgNX\nCQODj505kMIgW70JmhYgrzJHmgpLATEnKHePqPqW0ANZw9t2cAyJGv26jj4S3sgM\n3k19Lf5aVyNlZJtJcjwby1clHjmp0gZmYWt5vZSR5b87Ftv9GfEGnXUtuJARA/Qs\nLBywXoQURb9eX6xBw/B1wZv3s2hkb4jjFpaBDRIM1ckaWq7jeplGoX58fj/PaItw\n0PMrPHFPpcd+E7RiVAo1sV0blwj6RCfLfE8mvsOMjIpKwAKSda8Tn8PCkKLBGq8b\nBDsTLPQBAgMBAAECggEADnzuDCJtNefzDv4jLbGYwCBYduWDghLOss6L9VTtNuWU\nnIfF31HpF5naUzMn0FFb2Uo0ZTV2mcjhwi1YXKn8usejLWHFlGmzCBMyLc+sUUZi\npo3TLP+GTHn3xWUG4xX17tA3YSQrNoHaD8QvLTmNy5FgeAdFVFcE47opiBDiLETq\noEssNDXqfu0tQYlICLbjvTnObuZFJudpfcQLhCY4SAPrhZ0hhOdDbfcWrDDTICUb\nPCBkgg+/1CURTFpnghrekM29GGSpeYE4gnJhgjePXgZ9zTPh1Upp7uwpaK0NpXIS\nAS2z+1xm4rAzlG5+HFX1jYqSuh54PL3bLVdfx0JqgQKBgQC3W6g1CcUCsEVFaJQp\nSW4tEy4FYk+M0XZ98cxB9EQ8MhXyL6bEIHfMMVgX4vecYQxIp0Q2rMq4ODm94OzR\n1mutZLKGz19p4+XBAB2TmMeFr154rQRr8ynohXeE1Ova95xComA7atss4g1SNLce\n6a9sqk59C9sHWQUux4z0yF5HqQKBgQC18o6cSGddE+H2dZendWCzAuk6yO0NL4LE\nQjDeK9gR1hfI6Y1MaBqWoGEzkyuNk+21Q1qb5UGC8XWx7eXAgLZa/mIBgnlZrHPk\nhdI5ZL4WgaUgcrIi8CzCSFxoKcVPOzwMHhZYJCioMhVPZOCIxM94C9oEAGHmoARb\nmiPSmkcgmQKBgGqoLF49wpXfx0uqm5SwnCAoKfsDxtZY+Z4lSvWKiy6gy9dHFLC9\nWjIy+dVbN0GFyklw0uMi/ADQ4/Wpotgk7Bm+m4KDmjLUWE8+K/YxRs5ixodXzVyl\n49jX2kAwQsnqgsDYBzZI4BlpnOoWs/aNZHfHUUS34r6Rb8xYU4wICZ+RAoGASoMO\nIjSImBanaD5aIAsy0by0dQ2J/udhHyyYRLQh5ZQO44m6AvtzQBJoHC3+HRnitGPj\n/IoTnSNzdq2ddIuBopwg2MttFOtJ/uFK6ZQ3QJJRZIt0JljDi8EEjufkVQFGIxRD\nRE9ykwcHsR730SsAaAI6g38AmOkZP8ZNO1dRH6kCgYEAmYhF/JtCjpWCLpsANV6l\n8fyv6Y6XMDy3FEB7m1IxsqEa5HSJHpNTHNZddmW55rUppbkF8AtMkzcvx97KKzmJ\n1Fc2C8J44lhJpJtH/3dv4dxHVfTsyMWZwa3kDkIlyMzFNs3MDCSnzKlJHNT9L2QG\nhQZg2Xnfi1oqkmkdbQzORAA=\n-----END PRIVATE KEY-----\n",
  "client_email": "sharp-footing-218200@appspot.gserviceaccount.com",
  "client_id": "111985260547824861416",
  "auth_uri": "https://accounts.google.com/o/oauth2/auth",
  "token_uri": "https://oauth2.googleapis.com/token",
  "auth_provider_x509_cert_url": "https://www.googleapis.com/oauth2/v1/certs",
  "client_x509_cert_url": "https://www.googleapis.com/robot/v1/metadata/x509/sharp-footing-218200%40appspot.gserviceaccount.com"
}
